{
  "articles": [
    {
      "id": "1",
      "title": "Building Scalable React Applications in 2025",
      "slug": "building-scalable-react-applications-2025",
      "subtitle": "A comprehensive guide to modern React architecture patterns",
      "content": "# Building Scalable React Applications\n\nReact has evolved significantly over the years, and building scalable applications requires a deep understanding of modern patterns and best practices. In this article, we'll explore the latest techniques for structuring large-scale React applications.\n\n## Component Architecture\n\nOne of the most important aspects is **component architecture**. Breaking down your application into small, reusable components is crucial. But it's not just about creating components—it's about creating the right abstraction levels.\n\n### Key Principles:\n\n- Keep components focused on a single responsibility\n- Use composition over inheritance\n- Create reusable UI components in a component library\n- Separate business logic from presentation\n\n## State Management Evolution\n\nState management has also evolved. While Redux was once the go-to solution, we now have more options:\n\n1. **Zustand** - Minimal and fast\n2. **Jotai** - Atomic state management\n3. **Context API** - Built-in React solution\n4. **TanStack Query** - For server state\n\nEach has its use case, and choosing the right one depends on your application's complexity.\n\n> \"The best state management solution is the one that solves your specific problem without adding unnecessary complexity.\"\n\n## Performance Optimization\n\nPerformance optimization is another critical factor. Techniques like:\n\n- Code splitting with `React.lazy()`\n- Lazy loading components\n- Memoization with `useMemo` and `useCallback`\n- Virtual scrolling for long lists\n\nReact 19 introduces new features that make optimization easier than ever.\n\n```javascript\n// Example: Code splitting\nconst HeavyComponent = React.lazy(() => import('./HeavyComponent'));\n\nfunction App() {\n  return (\n    <Suspense fallback={<Loading />}>\n      <HeavyComponent />\n    </Suspense>\n  );\n}\n```\n\n## Conclusion\n\nBuilding scalable React applications is an ongoing journey. Stay updated with the latest patterns, but don't chase every new trend. Focus on fundamentals and choose tools that genuinely solve your problems.",
      "image": "https://images.unsplash.com/photo-1633356122544-f134324a6cee?w=800",
      "creator": {
        "id": "u1",
        "name": "Sarah Johnson",
        "username": "sarahj_dev",
        "avatar": "https://i.pravatar.cc/150?img=1",
        "bio": "Senior Frontend Engineer | React Enthusiast | Tech Writer"
      },
      "publishedAt": "2025-09-28T10:30:00Z",
      "readTime": 8,
      "tags": ["React", "JavaScript", "Web Development", "Programming"],
      "claps": 1243,
      "comments": 87
    },
    {
      "id": "2",
      "title": "The Future of AI and Machine Learning",
      "slug": "future-of-ai-machine-learning",
      "subtitle": "How artificial intelligence is reshaping industries",
      "content": "# The Future of AI and Machine Learning\n\nArtificial Intelligence is no longer a futuristic concept—it's here, and it's transforming every industry imaginable. From healthcare to finance, AI is revolutionizing how we work and live.\n\n## The Current State of AI\n\nMachine learning models have become more sophisticated, capable of:\n\n- Understanding context and nuance\n- Generating creative content\n- Making complex decisions\n- Processing natural language\n\nThe breakthrough in **large language models** has opened doors we never thought possible.\n\n## Industry Applications\n\n### Healthcare\n\n- Diagnostic assistance\n- Drug discovery\n- Personalized treatment plans\n- Medical imaging analysis\n\n### Finance\n\n- Fraud detection\n- Algorithmic trading\n- Risk assessment\n- Customer service automation\n\n## Ethical Considerations\n\nHowever, with great power comes great responsibility. As AI becomes more integrated into our daily lives, questions about **ethics, privacy, and bias** become increasingly important.\n\n> \"We need to ensure that AI development is guided by strong ethical principles and serves humanity's best interests.\"\n\n### Key Concerns:\n\n1. **Bias in AI models** - Training data can perpetuate existing biases\n2. **Privacy concerns** - How is personal data being used?\n3. **Job displacement** - What happens to workers replaced by AI?\n4. **Accountability** - Who is responsible when AI makes mistakes?\n\n## Looking Ahead\n\nThe next decade will be crucial in determining how AI shapes our future. Will we use it to solve humanity's greatest challenges, or will we let it amplify existing inequalities?\n\n```python\n# Simple example of AI prediction\nimport tensorflow as tf\n\nmodel = tf.keras.Sequential([\n    tf.keras.layers.Dense(128, activation='relu'),\n    tf.keras.layers.Dense(10, activation='softmax')\n])\n\nmodel.compile(optimizer='adam', loss='categorical_crossentropy')\n```\n\nThe choice is ours to make.",
      "image": "https://images.unsplash.com/photo-1677442136019-21780ecad995?w=800",
      "creator": {
        "id": "u2",
        "name": "Michael Chen",
        "username": "mchen_ai",
        "avatar": "https://i.pravatar.cc/150?img=2",
        "bio": "AI Researcher | PhD in Computer Science | Tech Futurist"
      },
      "publishedAt": "2025-09-25T14:15:00Z",
      "readTime": 12,
      "tags": ["AI", "Machine Learning", "Technology", "Future"],
      "claps": 2891,
      "comments": 203
    },
    {
      "id": "3",
      "title": "Mastering CSS Grid and Flexbox",
      "slug": "mastering-css-grid-flexbox",
      "subtitle": "Modern layout techniques every developer should know",
      "content": "# Mastering CSS Grid and Flexbox\n\nCSS has come a long way from the days of float-based layouts and table hacks. Today, we have powerful tools like **CSS Grid** and **Flexbox** that make creating complex layouts easier than ever.\n\n## Flexbox: One-Dimensional Layouts\n\nFlexbox is perfect for one-dimensional layouts. Whether you're arranging items in a row or column, Flexbox gives you precise control over:\n\n- Alignment\n- Distribution\n- Spacing\n- Order\n\n### Common Use Cases:\n\n```css\n/* Navigation Bar */\n.nav {\n  display: flex;\n  justify-content: space-between;\n  align-items: center;\n}\n\n/* Card Layout */\n.card {\n  display: flex;\n  flex-direction: column;\n  gap: 1rem;\n}\n```\n\n## CSS Grid: Two-Dimensional Layouts\n\nCSS Grid excels at two-dimensional layouts. It allows you to create complex grid structures with rows and columns, making it ideal for:\n\n1. Page layouts\n2. Image galleries\n3. Dashboards\n4. Magazine-style designs\n\n### Grid Example:\n\n```css\n.grid-container {\n  display: grid;\n  grid-template-columns: repeat(3, 1fr);\n  gap: 20px;\n}\n\n.sidebar {\n  grid-column: 1 / 2;\n  grid-row: 1 / 3;\n}\n```\n\n## Combining Both\n\nThe real power comes from **combining both**:\n\n> \"Use Grid for your overall page structure and Flexbox for component-level layouts.\"\n\nThis approach gives you maximum flexibility and maintainability.\n\n### Best Practices:\n\n- Use Grid for macro layouts (page structure)\n- Use Flexbox for micro layouts (components)\n- Always consider mobile-first design\n- Test across different screen sizes\n\n## Responsive Design\n\nBoth Grid and Flexbox work beautifully with media queries:\n\n```css\n.container {\n  display: grid;\n  grid-template-columns: repeat(auto-fit, minmax(250px, 1fr));\n}\n```\n\nThis creates a responsive grid that automatically adjusts based on available space.\n\n## Conclusion\n\nMastering both CSS Grid and Flexbox is essential for modern web development. They complement each other perfectly and solve different layout challenges.",
      "image": "https://images.unsplash.com/photo-1507721999472-8ed4421c4af2?w=800",
      "creator": {
        "id": "u3",
        "name": "Emily Rodriguez",
        "username": "emily_css",
        "avatar": "https://i.pravatar.cc/150?img=3",
        "bio": "CSS Specialist | UI/UX Designer | Frontend Developer"
      },
      "publishedAt": "2025-09-22T09:00:00Z",
      "readTime": 6,
      "tags": ["CSS", "Web Design", "Frontend", "Tutorial"],
      "claps": 876,
      "comments": 54
    },
    {
      "id": "4",
      "title": "Building a Sustainable Tech Career",
      "slug": "building-sustainable-tech-career",
      "subtitle": "Lessons learned from 10 years in software development",
      "content": "# Building a Sustainable Tech Career\n\nThe tech industry moves fast—sometimes too fast. In my decade as a software developer, I've learned that building a sustainable career isn't about chasing every new framework or technology. It's about developing **fundamental skills** and maintaining **work-life balance**.\n\n## Focus on Principles Over Tools\n\nLanguages and frameworks come and go, but core concepts remain constant:\n\n- **Algorithms** - How to solve problems efficiently\n- **Data Structures** - Organizing data effectively\n- **System Design** - Building scalable systems\n- **Clean Code** - Writing maintainable code\n\n> \"Master the fundamentals, and you'll adapt to any technology.\"\n\n## Mental Health Matters\n\nBurnout is real in this industry. Here's what I've learned:\n\n### Set Boundaries\n\n- No work emails after 6 PM\n- Weekends are for rest\n- Take your vacation days\n- Learn to say no\n\n### Practice Self-Care\n\n1. Regular exercise\n2. Adequate sleep (7-8 hours)\n3. Hobbies outside of tech\n4. Social connections\n\n## Strategic Learning\n\nYou don't need to learn everything. Be strategic:\n\n```markdown\n### Questions to Ask:\n\n- Does this align with my career goals?\n- Is this technology mature enough?\n- Will this solve a real problem I have?\n- Do I genuinely find this interesting?\n```\n\nIf the answer is no to most of these, it's okay to skip it.\n\n## Build Your Network\n\nYour network is your net worth. The people you work with today might be:\n\n- Future colleagues\n- Business partners\n- Mentors\n- Job references\n\n### Networking Tips:\n\n- Attend local meetups\n- Contribute to open source\n- Share your knowledge through blogs\n- Help others without expecting anything in return\n\n## Continuous Growth\n\nStay curious but don't overwhelm yourself:\n\n| Area | Time Investment |\n|------|----------------|\n| Deep work (coding) | 60% |\n| Learning new skills | 20% |\n| Networking | 10% |\n| Rest and reflection | 10% |\n\n## Final Thoughts\n\nA sustainable tech career is a marathon, not a sprint. Take care of yourself, keep learning, and remember why you started coding in the first place.\n\n**Your health and happiness matter more than any job or technology.**",
      "image": "https://images.unsplash.com/photo-1522071820081-009f0129c71c?w=800",
      "creator": {
        "id": "u4",
        "name": "David Kim",
        "username": "davidkim_tech",
        "avatar": "https://i.pravatar.cc/150?img=4",
        "bio": "Engineering Manager | Career Coach | Speaker"
      },
      "publishedAt": "2025-09-20T16:45:00Z",
      "readTime": 10,
      "tags": ["Career", "Tech", "Life", "Advice"],
      "claps": 3421,
      "comments": 312
    },
    {
      "id": "5",
      "title": "Introduction to TypeScript for Beginners",
      "slug": "introduction-typescript-beginners",
      "subtitle": "Why TypeScript is taking over the JavaScript world",
      "content": "# Introduction to TypeScript for Beginners\n\nTypeScript has become the **de facto standard** for modern JavaScript development, and for good reason. It adds static typing to JavaScript, catching errors before they reach production.\n\n## Why TypeScript?\n\nIf you're coming from vanilla JavaScript, TypeScript might seem intimidating at first. But the learning curve is gentler than you think.\n\n### Key Benefits:\n\n1. **Type Safety** - Catch bugs at compile time\n2. **Better IDE Support** - Intelligent autocomplete\n3. **Self-Documenting Code** - Types serve as documentation\n4. **Refactoring Confidence** - Safe code transformations\n\n## Getting Started\n\nYou can start by adding type annotations gradually:\n\n```typescript\n// JavaScript\nfunction add(a, b) {\n  return a + b;\n}\n\n// TypeScript\nfunction add(a: number, b: number): number {\n  return a + b;\n}\n```\n\nSee? Not scary at all!\n\n## Basic Types\n\nTypeScript provides several basic types:\n\n```typescript\n// Primitives\nlet name: string = \"John\";\nlet age: number = 30;\nlet isActive: boolean = true;\n\n// Arrays\nlet numbers: number[] = [1, 2, 3];\nlet strings: Array<string> = [\"a\", \"b\", \"c\"];\n\n// Objects\ninterface User {\n  id: number;\n  name: string;\n  email?: string; // Optional property\n}\n\nconst user: User = {\n  id: 1,\n  name: \"John Doe\"\n};\n```\n\n## Interfaces vs Types\n\nBoth define object shapes, but have subtle differences:\n\n```typescript\n// Interface (can be extended)\ninterface Person {\n  name: string;\n}\n\ninterface Employee extends Person {\n  employeeId: number;\n}\n\n// Type (more flexible)\ntype Point = {\n  x: number;\n  y: number;\n};\n\ntype ID = string | number; // Union types\n```\n\n## Generics\n\nGenerics make your code reusable:\n\n```typescript\nfunction identity<T>(arg: T): T {\n  return arg;\n}\n\nlet output1 = identity<string>(\"hello\");\nlet output2 = identity<number>(42);\n```\n\n## TypeScript in React\n\nTypeScript shines in React development:\n\n```typescript\ninterface ButtonProps {\n  label: string;\n  onClick: () => void;\n  disabled?: boolean;\n}\n\nconst Button: React.FC<ButtonProps> = ({ label, onClick, disabled }) => {\n  return (\n    <button onClick={onClick} disabled={disabled}>\n      {label}\n    </button>\n  );\n};\n```\n\n## Common Pitfalls\n\n> **Avoid using `any`** - It defeats the purpose of TypeScript\n\nInstead, use:\n- `unknown` for truly unknown types\n- Proper type definitions\n- Generics for flexible types\n\n## The Ecosystem\n\nMost modern tools have excellent TypeScript support:\n\n- ✅ ESLint with TypeScript\n- ✅ Prettier\n- ✅ Jest for testing\n- ✅ All major frameworks (React, Vue, Angular)\n\n## Conclusion\n\nStarting with TypeScript today means investing in your future as a developer. Most new projects and companies are adopting it, making it an essential skill for modern web development.\n\n**Start small, be patient, and enjoy the journey!**",
      "image": "https://images.unsplash.com/photo-1516116216624-53e697fedbea?w=800",
      "creator": {
        "id": "u5",
        "name": "Jessica Taylor",
        "username": "jess_typescript",
        "avatar": "https://i.pravatar.cc/150?img=5",
        "bio": "Full Stack Developer | TypeScript Advocate | Open Source Contributor"
      },
      "publishedAt": "2025-09-18T11:20:00Z",
      "readTime": 7,
      "tags": ["TypeScript", "JavaScript", "Programming", "Tutorial"],
      "claps": 1567,
      "comments": 98
    },
    {
      "id": "6",
      "title": "The Art of API Design",
      "slug": "art-of-api-design",
      "subtitle": "Creating intuitive and scalable APIs",
      "content": "# The Art of API Design\n\nA well-designed API is like a good conversation—it's **intuitive, consistent, and pleasant** to work with. Poor API design, on the other hand, can make developers' lives miserable.\n\n## First Principle: Consistency\n\nThe first principle of good API design is **consistency**. Use the same:\n\n- Naming conventions\n- Error handling patterns\n- Response structures\n- Authentication methods\n\nThis predictability helps developers build mental models quickly.\n\n## RESTful Conventions\n\nFollow HTTP methods correctly:\n\n| Method | Purpose | Example |\n|--------|---------|----------|\n| GET | Read data | `GET /users/123` |\n| POST | Create new | `POST /users` |\n| PUT | Full update | `PUT /users/123` |\n| PATCH | Partial update | `PATCH /users/123` |\n| DELETE | Remove | `DELETE /users/123` |\n\n### Status Codes Matter\n\n```http\n200 OK - Success\n201 Created - Resource created\n400 Bad Request - Invalid input\n401 Unauthorized - Not authenticated\n403 Forbidden - No permission\n404 Not Found - Resource doesn't exist\n500 Internal Server Error - Server error\n```\n\n## Versioning Strategy\n\nYour API will evolve. Plan for it:\n\n```\n# URL Versioning (Simple & Explicit)\nhttps://api.example.com/v1/users\nhttps://api.example.com/v2/users\n\n# Header Versioning\nAccept: application/vnd.api+json; version=1\n```\n\n### Migration Path\n\n1. Release new version\n2. Deprecate old version\n3. Provide migration guide\n4. Give developers time (6-12 months)\n5. Sunset old version\n\n## Error Handling\n\nProvide helpful error messages:\n\n```json\n{\n  \"error\": {\n    \"code\": \"INVALID_EMAIL\",\n    \"message\": \"The email address format is invalid\",\n    \"field\": \"email\",\n    \"value\": \"notanemail\"\n  }\n}\n```\n\n> \"Good error messages help developers fix issues quickly.\"\n\n## Pagination\n\nDon't return thousands of records at once:\n\n```json\n{\n  \"data\": [...],\n  \"pagination\": {\n    \"page\": 1,\n    \"per_page\": 20,\n    \"total\": 156,\n    \"total_pages\": 8\n  },\n  \"links\": {\n    \"next\": \"/users?page=2\",\n    \"prev\": null\n  }\n}\n```\n\n## Documentation\n\nDocumentation isn't optional—it's part of your API:\n\n### Use OpenAPI/Swagger\n\n```yaml\nopenapi: 3.0.0\ninfo:\n  title: User API\n  version: 1.0.0\npaths:\n  /users:\n    get:\n      summary: List all users\n      parameters:\n        - name: page\n          in: query\n          schema:\n            type: integer\n```\n\n## Security Best Practices\n\n- ✅ Use HTTPS everywhere\n- ✅ Implement rate limiting\n- ✅ Validate all input\n- ✅ Use OAuth 2.0 for authentication\n- ✅ Never expose sensitive data\n\n### Rate Limiting Example\n\n```http\nX-RateLimit-Limit: 1000\nX-RateLimit-Remaining: 999\nX-RateLimit-Reset: 1234567890\n```\n\n## API Design Checklist\n\n- [ ] Consistent naming conventions\n- [ ] Proper HTTP methods\n- [ ] Meaningful status codes\n- [ ] Clear error messages\n- [ ] Pagination for lists\n- [ ] Versioning strategy\n- [ ] Authentication & authorization\n- [ ] Rate limiting\n- [ ] Comprehensive documentation\n- [ ] Example requests/responses\n\n## Conclusion\n\nGreat API design is about **empathy**—understanding your developers' needs and making their lives easier. Take time to design thoughtfully, and your API will be a joy to use.",
      "image": "https://images.unsplash.com/photo-1558494949-ef010cbdcc31?w=800",
      "creator": {
        "id": "u6",
        "name": "Alex Martinez",
        "username": "alex_api",
        "avatar": "https://i.pravatar.cc/150?img=6",
        "bio": "Backend Engineer | API Architect | System Designer"
      },
      "publishedAt": "2025-09-15T13:30:00Z",
      "readTime": 9,
      "tags": ["API", "Backend", "Design", "Best Practices"],
      "claps": 2103,
      "comments": 145
    },
    {
      "id": "7",
      "title": "Mindfulness for Developers",
      "slug": "mindfulness-for-developers",
      "subtitle": "How meditation changed my coding life",
      "content": "# Mindfulness for Developers\n\nAs developers, we spend hours in front of screens, solving complex problems and debugging frustrating issues. The **mental toll** can be significant, leading to stress, anxiety, and burnout.\n\n## My Journey\n\nI discovered mindfulness meditation three years ago, and it transformed how I approach both coding and life. Starting with just **10 minutes a day**, I learned to:\n\n- Observe my thoughts without judgment\n- Stay present in the moment\n- Respond rather than react\n- Accept things as they are\n\n## Benefits for Coding\n\nThe benefits were unexpected but profound:\n\n### 1. Improved Focus\n\n> \"I became better at focusing on one problem at a time, rather than letting my mind race ahead.\"\n\nInstead of jumping between tasks, I learned to give my full attention to what I'm working on right now.\n\n### 2. Better Debugging\n\nMy debugging improved because I could approach problems with a **calmer, clearer mind**. No more frustration spirals!\n\n### 3. Reduced Imposter Syndrome\n\nMindfulness helped with imposter syndrome—that nagging feeling that I'm not good enough. By observing these thoughts without attaching to them, I could see them for what they were: **just thoughts, not reality**.\n\n## Getting Started\n\nYou don't need anything special to start:\n\n### Simple Breathing Exercise\n\n```markdown\n1. Sit comfortably\n2. Close your eyes\n3. Focus on your breath\n4. Count: Inhale (1-2-3-4), Exhale (1-2-3-4)\n5. When your mind wanders, gently return to breath\n6. Continue for 5-10 minutes\n```\n\n### Mindful Coding Practice\n\nBring mindfulness to your coding:\n\n- **Before coding**: Take 3 deep breaths\n- **During debugging**: Notice frustration arising, breathe\n- **After solving**: Pause and appreciate the solution\n- **Breaks**: Step away from screen, stretch, breathe\n\n## Apps I Recommend\n\n1. **Headspace** - Great for beginners\n2. **Calm** - Soothing interface\n3. **Insight Timer** - Free with thousands of meditations\n4. **Oak** - Simple and minimalist\n\n## Common Misconceptions\n\n### \"I don't have time\"\n\nStart with just 5 minutes. That's less than one YouTube video.\n\n### \"I can't stop thinking\"\n\nThat's normal! Meditation isn't about stopping thoughts—it's about changing your relationship with them.\n\n### \"It's too woo-woo\"\n\nMindfulness is backed by science. Studies show it:\n\n- Reduces stress and anxiety\n- Improves focus and memory\n- Enhances emotional regulation\n- Boosts creativity\n\n## My Daily Practice\n\nHere's what works for me:\n\n| Time | Duration | Practice |\n|------|----------|----------|\n| Morning | 10 min | Meditation |\n| Before lunch | 5 min | Breathing |\n| Mid-afternoon | 5 min | Walking meditation |\n| Before bed | 10 min | Body scan |\n\n## Dealing with Stress\n\nWhen you feel stressed:\n\n1. **STOP** - Pause what you're doing\n2. **TAKE A BREATH** - Three deep breaths\n3. **OBSERVE** - Notice what you're feeling\n4. **PROCEED** - Continue with awareness\n\n## The Coding Connection\n\nMindfulness and coding share similarities:\n\n```python\n# Both require:\n- Focus and attention\n- Patience with the process\n- Acceptance of errors\n- Iteration and refinement\n- Present moment awareness\n```\n\n## Words of Encouragement\n\nIf you're feeling overwhelmed or stressed in your tech career, I encourage you to give mindfulness a try.\n\n**Start small, be consistent, and be patient with yourself.**\n\nYou're not trying to become a meditation master. You're just learning to be present with whatever arises—in your code and in your life.\n\n## Resources\n\n- 📚 \"The Miracle of Mindfulness\" by Thich Nhat Hanh\n- 📚 \"Wherever You Go, There You Are\" by Jon Kabat-Zinn\n- 🎧 Tara Brach's podcast\n- 🌐 /r/Mindfulness on Reddit\n\n---\n\n*Remember: Your mental health is more important than any deadline or feature. Take care of yourself.*",
      "image": "https://images.unsplash.com/photo-1506126613408-eca07ce68773?w=800",
      "creator": {
        "id": "u7",
        "name": "Maya Patel",
        "username": "maya_mindful",
        "avatar": "https://i.pravatar.cc/150?img=7",
        "bio": "Software Developer | Mindfulness Practitioner | Mental Health Advocate"
      },
      "publishedAt": "2025-09-12T08:00:00Z",
      "readTime": 5,
      "tags": ["Mindfulness", "Mental Health", "Productivity", "Wellness"],
      "claps": 4567,
      "comments": 287
    }
  ]
}
